WC3/11/transcript
# vsim -c tb_q_learning_update -do "run -all" 
# Start time: 15:28:05 on Apr 16,2025
# ** Note: (vsim-3813) Design is being optimized due to module recompilation...
# //  Questa Sim-64
# //  Version 2021.3_1 linux_x86_64 Aug 15 2021
# //
# //  Copyright 1991-2021 Mentor Graphics Corporation
# //  All Rights Reserved.
# //
# //  QuestaSim and its associated documentation contain trade
# //  secrets and commercial or financial information that are the property of
# //  Mentor Graphics Corporation and are privileged, confidential,
# //  and exempt from disclosure under the Freedom of Information Act,
# //  5 U.S.C. Section 552. Furthermore, this information
# //  is prohibited from disclosure under the Trade Secrets Act,
# //  18 U.S.C. Section 1905.
# //
# Loading sv_std.std
# Loading work.tb_q_learning_update(fast)
# run -all
# Time: 0 | State: 0 | Action: 0 | Reward: 0 | Updated Q-value: 0
# Time: 20 | State: 0 | Action: 1 | Reward: 10 | Updated Q-value: 0
# Time: 35 | State: 0 | Action: 1 | Reward: 10 | Updated Q-value: 10
# Time: 40 | State: 1 | Action: 2 | Reward: 20 | Updated Q-value: 10
# Time: 50 | State: 2 | Action: 0 | Reward: 5 | Updated Q-value: 10
# Time: 55 | State: 2 | Action: 0 | Reward: 5 | Updated Q-value: 20
# Time: 65 | State: 2 | Action: 0 | Reward: 5 | Updated Q-value: 5
# Time: 70 | State: 0 | Action: 1 | Reward: 0 | Updated Q-value: 5
# Time: 85 | State: 0 | Action: 1 | Reward: 0 | Updated Q-value: 20
# Time: 90 | State: 3 | Action: 3 | Reward: 30 | Updated Q-value: 20
# Time: 95 | State: 3 | Action: 3 | Reward: 30 | Updated Q-value: 0
# Time: 105 | State: 3 | Action: 3 | Reward: 30 | Updated Q-value: 35
# ** Note: $finish    : frozenlaketb.sv(87)
#    Time: 110 ns  Iteration: 0  Instance: /tb_q_learning_update
# End time: 15:28:06 on Apr 16,2025, Elapsed time: 0:00:01
# Errors: 0, Warnings: 0
