WC6/19/transcript
# vsim -c top -do "run -all" 
# Start time: 13:32:00 on May 17,2025
# ** Note: (vsim-3812) Design is being optimized...
# //  Questa Sim-64
# //  Version 2021.3_1 linux_x86_64 Aug 15 2021
# //
# //  Copyright 1991-2021 Mentor Graphics Corporation
# //  All Rights Reserved.
# //
# //  QuestaSim and its associated documentation contain trade
# //  secrets and commercial or financial information that are the property of
# //  Mentor Graphics Corporation and are privileged, confidential,
# //  and exempt from disclosure under the Freedom of Information Act,
# //  5 U.S.C. Section 552. Furthermore, this information
# //  is prohibited from disclosure under the Trade Secrets Act,
# //  18 U.S.C. Section 1905.
# //
# Loading sv_std.std
# Loading work.top(fast)
# run -all
# Time: 5000, Input: 0, Potential: 0.000000, Spike: 0
# Time: 15000, Input: 0, Potential: 0.000000, Spike: 0
# 
# --- Scenario 1: Constant sub-threshold input ---
# Time: 25000, Input: 1, Potential: 0.000000, Spike: 0
# Time: 35000, Input: 1, Potential: 1.000000, Spike: 0
# Time: 45000, Input: 1, Potential: 0.200000, Spike: 1
# Time: 55000, Input: 1, Potential: 1.180000, Spike: 0
# Time: 65000, Input: 1, Potential: 0.200000, Spike: 1
# Time: 75000, Input: 1, Potential: 1.180000, Spike: 0
# Time: 85000, Input: 1, Potential: 0.200000, Spike: 1
# Time: 95000, Input: 1, Potential: 1.180000, Spike: 0
# Time: 105000, Input: 1, Potential: 0.200000, Spike: 1
# Time: 115000, Input: 1, Potential: 1.180000, Spike: 0
# 
# --- Scenario 2: Accumulating to threshold ---
# Time: 125000, Input: 1, Potential: 0.200000, Spike: 1
# Time: 135000, Input: 0, Potential: 1.180000, Spike: 0
# Time: 145000, Input: 1, Potential: 0.200000, Spike: 1
# Time: 155000, Input: 0, Potential: 1.180000, Spike: 0
# Time: 165000, Input: 1, Potential: 0.200000, Spike: 1
# Time: 175000, Input: 0, Potential: 1.180000, Spike: 0
# Time: 185000, Input: 1, Potential: 0.200000, Spike: 1
# Time: 195000, Input: 0, Potential: 1.180000, Spike: 0
# Time: 205000, Input: 1, Potential: 0.200000, Spike: 1
# Time: 215000, Input: 0, Potential: 1.180000, Spike: 0
# 
# --- Scenario 3: Leakage demonstration ---
# Time: 225000, Input: 0, Potential: 0.200000, Spike: 1
# Time: 235000, Input: 0, Potential: 0.180000, Spike: 0
# Time: 245000, Input: 0, Potential: 0.162000, Spike: 0
# Time: 255000, Input: 0, Potential: 0.145800, Spike: 0
# Time: 265000, Input: 0, Potential: 0.131220, Spike: 0
# Time: 275000, Input: 0, Potential: 0.118098, Spike: 0
# Time: 285000, Input: 0, Potential: 0.106288, Spike: 0
# Time: 295000, Input: 0, Potential: 0.095659, Spike: 0
# Time: 305000, Input: 0, Potential: 0.086093, Spike: 0
# Time: 315000, Input: 0, Potential: 0.077484, Spike: 0
# 
# --- Scenario 4: Strong immediate input ---
# Time: 325000, Input: 1, Potential: 0.069736, Spike: 0
# Time: 335000, Input: 0, Potential: 1.062762, Spike: 0
# Time: 345000, Input: 0, Potential: 0.200000, Spike: 1
# Time: 355000, Input: 0, Potential: 0.180000, Spike: 0
# Time: 365000, Input: 0, Potential: 0.162000, Spike: 0
# Time: 375000, Input: 0, Potential: 0.145800, Spike: 0
# 
# Simulation complete
# ** Note: $finish    : top.sv(63)
#    Time: 380 ns  Iteration: 0  Instance: /top
# End time: 13:32:01 on May 17,2025, Elapsed time: 0:00:01
# Errors: 0, Warnings: 0
